<svg xmlns="http://www.w3.org/2000/svg" xmlns:xlink="http://www.w3.org/1999/xlink" width="80.929" height="116.066" viewBox="0 0 80.929 116.066">
  <defs>
    <linearGradient id="linear-gradient" x1="0.5" y1="0.896" x2="0.5" y2="0.326" gradientUnits="objectBoundingBox">
      <stop offset="0" stop-color="#1d06ff"/>
      <stop offset="1" stop-color="#46d5fd"/>
    </linearGradient>
  </defs>
  <g id="Group_291" data-name="Group 291" transform="translate(-2728.109 -1534.255)">
    <g id="Group_290" data-name="Group 290" transform="translate(2743.932 1543.443)">
      <rect id="Rectangle_156" data-name="Rectangle 156" width="46.723" height="46.723" rx="23.362" transform="translate(0 0)" fill="url(#linear-gradient)"/>
    </g>
    <path id="Path_602" data-name="Path 602" d="M2787.691,1599.353a32.549,32.549,0,1,1,32.549-32.549A32.586,32.586,0,0,1,2787.691,1599.353Zm0-61.171a28.622,28.622,0,1,0,28.622,28.622A28.654,28.654,0,0,0,2787.691,1538.182Z" transform="translate(-20.398 0)"/>
    <path id="Path_603" data-name="Path 603" d="M2871.311,1629.851a7.717,7.717,0,0,0-3.664-1.981l-3.377-.958a5,5,0,0,1-1.862-.858,1.515,1.515,0,0,1-.585-1.19,1.7,1.7,0,0,1,.419-1.124,2.747,2.747,0,0,1,1.13-.778,3.978,3.978,0,0,1,1.589-.253,4.043,4.043,0,0,1,1.669.392,3.542,3.542,0,0,1,1.749,1.862.858.858,0,0,0,.947.512l2.01-.359a.867.867,0,0,0,.659-1.157,7.416,7.416,0,0,0-1.136-2.041,6.483,6.483,0,0,0-2.467-1.9,7.11,7.11,0,0,0-.856-.316.867.867,0,0,1-.607-.834v-.93a.865.865,0,0,0-.865-.865h-1.886a.865.865,0,0,0-.865.865v.815a.861.861,0,0,1-.654.838,6.91,6.91,0,0,0-1.241.426,5.39,5.39,0,0,0-2.354,1.988,5.5,5.5,0,0,0-.831,3.045q0,3.737,4.1,5l4.734,1.463a3.138,3.138,0,0,1,1.35.751,1.63,1.63,0,0,1,.432,1.163,2.082,2.082,0,0,1-.991,1.742,4.358,4.358,0,0,1-6.547-2.051.869.869,0,0,0-.945-.56l-1.955.3a.861.861,0,0,0-.708,1.057,7,7,0,0,0,1.119,2.4,6.8,6.8,0,0,0,2.646,2.167,7.464,7.464,0,0,0,1.2.444.863.863,0,0,1,.644.828v.888a.865.865,0,0,0,.865.865h1.886a.865.865,0,0,0,.865-.865v-.843a.859.859,0,0,1,.644-.836,7.561,7.561,0,0,0,1.384-.487,6.137,6.137,0,0,0,2.56-2.141,5.575,5.575,0,0,0,.918-3.178A4.766,4.766,0,0,0,2871.311,1629.851Z" transform="translate(-97.76 -62.488)" fill="#fff"/>
    <path id="Path_604" data-name="Path 604" d="M2853.569,1859.469a6.881,6.881,0,0,1-6.874-6.874v-21.187h-2.981a3.962,3.962,0,0,1-3.645-2.289,3.779,3.779,0,0,1,.521-4.028l9.076-11.812.057-.071a5.074,5.074,0,0,1,7.691,0c.02.023.039.047.057.071l9.076,11.812a3.778,3.778,0,0,1,.521,4.028,3.963,3.963,0,0,1-3.645,2.289h-2.981V1852.6A6.881,6.881,0,0,1,2853.569,1859.469Zm-9.862-31.988h4.952a1.964,1.964,0,0,1,1.964,1.964V1852.6a2.946,2.946,0,0,0,5.892,0v-23.151a1.964,1.964,0,0,1,1.964-1.964h4.952l-9.039-11.763a1.154,1.154,0,0,0-1.646,0Z" transform="translate(-84.207 -209.149)"/>
    <path id="Path_605" data-name="Path 605" d="M2741.967,1897.2a6.882,6.882,0,0,1-6.874-6.874v-8.914h-2.981a3.963,3.963,0,0,1-3.645-2.289,3.78,3.78,0,0,1,.521-4.028l9.077-11.812.057-.071a5.074,5.074,0,0,1,7.691,0c.02.023.039.047.057.071l9.076,11.812a3.779,3.779,0,0,1,.521,4.028,3.963,3.963,0,0,1-3.645,2.289h-2.981v8.914A6.882,6.882,0,0,1,2741.967,1897.2Zm-9.862-19.715h4.952a1.964,1.964,0,0,1,1.964,1.964v10.878a2.946,2.946,0,0,0,5.892,0v-10.878a1.964,1.964,0,0,1,1.964-1.964h4.952l-9.039-11.763a1.153,1.153,0,0,0-1.646,0Z" transform="translate(0 -246.875)"/>
    <path id="Path_606" data-name="Path 606" d="M2958.748,1897.2a6.881,6.881,0,0,1-6.874-6.874v-8.914h-2.981a3.963,3.963,0,0,1-3.645-2.289,3.779,3.779,0,0,1,.521-4.028l9.077-11.812c.018-.024.038-.048.057-.071a5.012,5.012,0,0,1,3.845-1.764h0a5.014,5.014,0,0,1,3.845,1.764c.02.023.038.047.057.071l9.077,11.812a3.78,3.78,0,0,1,.521,4.028,3.963,3.963,0,0,1-3.645,2.289h-2.981v8.914A6.881,6.881,0,0,1,2958.748,1897.2Zm-9.862-19.715h4.952a1.964,1.964,0,0,1,1.964,1.964v10.878a2.946,2.946,0,0,0,5.893,0v-10.878a1.964,1.964,0,0,1,1.964-1.964h4.952l-9.039-11.763a1.1,1.1,0,0,0-.823-.346h0a1.1,1.1,0,0,0-.823.346Z" transform="translate(-163.568 -246.875)"/>
  </g>
</svg>
