<svg xmlns="http://www.w3.org/2000/svg" xmlns:xlink="http://www.w3.org/1999/xlink" width="114.901" height="114" viewBox="0 0 114.901 114">
  <defs>
    <linearGradient id="linear-gradient" x1="0.536" y1="1.263" x2="0.45" y2="-0.327" gradientUnits="objectBoundingBox">
      <stop offset="0" stop-color="#0307ff"/>
      <stop offset="1" stop-color="#47d5fd"/>
    </linearGradient>
    <linearGradient id="linear-gradient-2" x1="0.534" y1="1.23" x2="0.448" y2="-0.361" xlink:href="#linear-gradient"/>
    <linearGradient id="linear-gradient-3" x1="0.549" y1="2.615" x2="0.498" y2="0.434" xlink:href="#linear-gradient"/>
  </defs>
  <g id="Group_286" data-name="Group 286" transform="translate(-487.704 -2171.364)">
    <g id="Group_223" data-name="Group 223" transform="translate(515.551 2198.031)">
      <g id="Group_208" data-name="Group 208" transform="translate(0 20.944)">
        <g id="Group_207" data-name="Group 207">
          <g id="Group_206" data-name="Group 206">
            <g id="Group_205" data-name="Group 205">
              <g id="Group_204" data-name="Group 204">
                <g id="Group_203" data-name="Group 203">
                  <g id="Group_202" data-name="Group 202">
                    <path id="Path_316" data-name="Path 316" d="M607.339,2362.672l-5.2,7.342a13.857,13.857,0,0,0-.947,14.462l4.8,9.116a1.46,1.46,0,0,0,2.564.033l4.643-8.281" transform="translate(-599.599 -2362.672)" fill="url(#linear-gradient)"/>
                  </g>
                </g>
              </g>
            </g>
          </g>
        </g>
      </g>
      <g id="Group_215" data-name="Group 215" transform="translate(45.681 20.947)">
        <g id="Group_214" data-name="Group 214">
          <g id="Group_213" data-name="Group 213">
            <g id="Group_212" data-name="Group 212">
              <g id="Group_211" data-name="Group 211">
                <g id="Group_210" data-name="Group 210">
                  <g id="Group_209" data-name="Group 209">
                    <path id="Path_317" data-name="Path 317" d="M783.156,2385.439l4.561,8.188a1.46,1.46,0,0,0,2.566-.03l4.8-9.108a13.857,13.857,0,0,0-.947-14.462l-5.2-7.342" transform="translate(-783.156 -2362.685)" fill="url(#linear-gradient-2)"/>
                  </g>
                </g>
              </g>
            </g>
          </g>
        </g>
      </g>
      <g id="Group_222" data-name="Group 222" transform="translate(18.049 0)">
        <g id="Group_221" data-name="Group 221">
          <g id="Group_220" data-name="Group 220">
            <g id="Group_219" data-name="Group 219">
              <g id="Group_218" data-name="Group 218">
                <g id="Group_217" data-name="Group 217">
                  <g id="Group_216" data-name="Group 216">
                    <circle id="Ellipse_17" data-name="Ellipse 17" cx="11.553" cy="11.553" r="11.553" fill="url(#linear-gradient-3)"/>
                  </g>
                </g>
              </g>
            </g>
          </g>
        </g>
      </g>
    </g>
    <g id="Group_224" data-name="Group 224" transform="translate(487.704 2171.364)">
      <path id="Path_318" data-name="Path 318" d="M602.258,2543.29a18.033,18.033,0,0,0-24.872-5.636q-.3.189-.592.389h0a18.054,18.054,0,0,0-16.5-10.751,17.86,17.86,0,0,0-10.875,3.653,18.218,18.218,0,0,0-4.268,4.61h0a18.225,18.225,0,0,0-4.269-4.6,17.863,17.863,0,0,0-10.875-3.653,18.055,18.055,0,0,0-16.5,10.751h0a18.032,18.032,0,0,0-25.074,4.646q-.2.293-.392.595a2.241,2.241,0,0,0-.346,1.205v5.975a2.244,2.244,0,0,0,2.244,2.244H600.361a2.244,2.244,0,0,0,2.244-2.244h0v-5.975A2.239,2.239,0,0,0,602.258,2543.29Zm-4.141,4.931H492.191v-3.053h0a13.531,13.531,0,0,1,20.8-1.719,2.244,2.244,0,0,0,3.794-1.073,13.5,13.5,0,0,1,13.225-10.593A13.658,13.658,0,0,1,543,2541.476a2.244,2.244,0,0,0,4.3,0,13.658,13.658,0,0,1,12.993-9.694,13.5,13.5,0,0,1,13.225,10.593,2.244,2.244,0,0,0,3.794,1.073,13.531,13.531,0,0,1,20.8,1.718h0v3.053Z" transform="translate(-487.704 -2438.714)"/>
      <path id="Path_319" data-name="Path 319" d="M628.273,2246.341h6.053q-.015.266-.015.535c0,7.308,7.678,10.943,8,11.093a2.244,2.244,0,0,0,1.924-.019c.325-.158,7.964-3.957,7.964-11.075,0-.18-.005-.357-.015-.534h6.053a2.244,2.244,0,0,0,2.168-1.678c.319-1.219,7.792-29.944,7.792-36.6,0-8.449-4.011-17.3-11.907-26.293a59.583,59.583,0,0,0-10.252-9.494,4.575,4.575,0,0,0-5.5.023,59.841,59.841,0,0,0-10.318,9.476c-7.9,9-11.912,17.843-11.912,26.293,0,6.658,7.473,35.383,7.792,36.6A2.244,2.244,0,0,0,628.273,2246.341Zm19.442.535c0,3.161-2.915,5.465-4.477,6.474-1.557-.975-4.439-3.228-4.439-6.474a4.521,4.521,0,0,1,.032-.535h8.853a4.584,4.584,0,0,1,.031.542ZM646.185,2178a78.207,78.207,0,0,1,6.9,6.934H633.433a78.216,78.216,0,0,1,6.9-6.935A4.408,4.408,0,0,1,646.185,2178Zm-16.321,11.427h26.8c3.9,5.425,7.057,11.894,7.057,18.638,0,4.737-4.854,24.613-7.212,33.792h-26.5c-2.358-9.178-7.212-29.051-7.212-33.792,0-6.745,3.153-13.213,7.06-18.638Z" transform="translate(-585.806 -2171.364)"/>
    </g>
  </g>
</svg>
